Lecture 4
…
df <- read_rds('https://github.com/jbisbee1/PSCI_8356/raw/main/Lectures/Data/sc_debt.Rds')
```

---

# Looking at the data

- Always *always* **always** look at your data!

```r
df
```

```
## # A tibble: 2,546 × 16
##    unitid instnm       stabbr grad_…¹ control region preddeg
##     <int> <chr>        <chr>    <int> <chr>   <chr>  <chr>  
##  1 100654 Alabama A &… AL       33375 Public  South… Bachel…
##  2 100663 University … AL       22500 Public  South… Bachel…
##  3 100690 Amridge Uni… AL       27334 Private South… Associ…
##  4 100706 University … AL       21607 Public  South… Bachel…
##  5 100724 Alabama Sta… AL       32000 Public  South… Bachel…
##  6 100751 The Univers… AL       23250 Public  South… Bachel…
##  7 100760 Central Ala… AL       12500 Public  South… Associ…
##  8 100812 Athens Stat… AL       19500 Public  South… Bachel…
##  9 100830 Auburn Univ… AL       24826 Public  South… Bachel…
## 10 100858 Auburn Univ… AL       21281 Public  South… Bachel…
## # … with 2,536 more rows, 9 more variables: openadmp <int>,
## #   adm_rate <dbl>, ccbasic <int>, sat_avg <int>,
## #   md_earn_wne_p6 <int>, ugds <int>, costt4_a <int>,
## #   selective <dbl>, research_u <dbl>, and abbreviated
## #   variable name ¹​grad_debt_mdn
```
…
# Looking at the data

- Can you find an example of a **nominal** variable? What about an **ordinal**, **interval**, and **ratio**?

--

```r
# Some nominal variables (what is the definition?)
df %>%
  select(instnm,stabbr,control,region)
```

```
## # A tibble: 2,546 × 4
##    instnm                              stabbr control region
##    <chr>                               <chr>  <chr>   <chr> 
##  1 Alabama A & M University            AL     Public  South…
##  2 University of Alabama at Birmingham AL     Public  South…
##  3 Amridge University                  AL     Private South…
##  4 University of Alabama in Huntsville AL     Public  South…
##  5 Alabama State University            AL     Public  South…
##  6 The University of Alabama           AL     Public  South…
##  7 Central Alabama Community College   AL     Public  South…
##  8 Athens State University             AL     Public  South…
##  9 Auburn University at Montgomery     AL     Public  South…
## 10 Auburn University                   AL     Public  South…
## # … with 2,536 more rows
```

---

# Looking at the data

- Can you find an example of a **nominal** variable? What about an **ordinal**, **interval**, and **ratio**?

```r
# Is this an ordinal variable?
df %>%
  select(preddeg)
```

```
## # A tibble: 2,546 × 1
##    preddeg   
##    <chr>     
##  1 Bachelor's
##  2 Bachelor's
##  3 Associate 
##  4 Bachelor's
##  5 Bachelor's
##  6 Bachelor's
##  7 Associate 
##  8 Bachelor's
##  9 Bachelor's
## 10 Bachelor's
## # … with 2,536 more rows
```

---

# Looking at the data

- Can you find an example of a **nominal** variable? What about an **ordinal**, **interval**, and **ratio**?

```r
# Is this an interval or a ratio variable?
df %>%
  select(sat_avg)
```

```
## # A tibble: 2,546 × 1
##    sat_avg
##      <int>
##  1     939
##  2    1234
##  3      NA
##  4    1319
##  5     946
##  6    1261
##  7      NA
##  8      NA
##  9    1082
## 10    1300
## # … with 2,536 more rows
```
…
---

# Summarizing data: Frequency tables

- Recall the different approaches to **summarizing data**

```r
df %>%
  count(stabbr) %>%
  arrange(desc(n))
```

```
## # A tibble: 51 × 2
##    stabbr     n
##    <chr>  <int>
##  1 NY       232
##  2 CA       224
##  3 TX       150
##  4 PA       129
##  5 IL       108
##  6 OH        94
##  7 MA        91
##  8 NC        90
##  9 FL        81
## 10 MI        74
## # … with 41 more rows
```
…
# Summarizing Data: Manually

```r
df %>%
  select(sat_avg) %>%
  mutate(ybar = mean(sat_avg,na.rm=T)) %>% # Calculate Y bar
  mutate(yi_ybar = sat_avg - ybar) %>% # Calculate diffs
  mutate(yi_ybar2 = yi_ybar^2) %>% # Square diffs
  mutate(yi_yibar2_sum = sum(yi_ybar2,na.rm=T)) %>% # Sum squared diffs
  mutate(N = sum(!is.na(sat_avg))) %>% # Calculate N
  mutate(var_sat = yi_yibar2_sum / (N)) # Calculate variance
```

```
## # A tibble: 2,546 × 7
##    sat_avg  ybar yi_ybar yi_ybar2 yi_yibar2_…¹     N var_sat
##      <int> <dbl>   <dbl>    <dbl>        <dbl> <int>   <dbl>
##  1     939 1141.  -202.    40667.    20939803.  1229  17038.
##  2    1234 1141.    93.3    8712.    20939803.  1229  17038.
##  3      NA 1141.    NA        NA     20939803.  1229  17038.
##  4    1319 1141.   178.    31805.    20939803.  1229  17038.
##  5     946 1141.  -195.    37893.    20939803.  1229  17038.
##  6    1261 1141.   120.    14481.    20939803.  1229  17038.
##  7      NA 1141.    NA        NA     20939803.  1229  17038.
##  8      NA 1141.    NA        NA     20939803.  1229  17038.
##  9    1082 1141.   -58.7    3441.    20939803.  1229  17038.
## 10    1300 1141.   159.    25389.    20939803.  1229  17038.
## # … with 2,536 more rows, and abbreviated variable name
## #   ¹​yi_yibar2_sum
```
…
