Review Session 2
…
---

# Probability Distributions

- Let's draw 10,000 observations!

```r
Y <- sample(1:3,size = 10000,replace = T,prob = c(.3,.5,.2))
data.frame(Y = Y) %>%
  as_tibble()
```

```
## # A tibble: 10,000 × 1
##        Y
##    <int>
##  1     1
##  2     3
##  3     1
##  4     2
##  5     3
##  6     2
##  7     1
##  8     1
##  9     2
## 10     3
## # ℹ 9,990 more rows
```
…
- For continuous random variables, `\(p(Y=y) = 0\)`

--

```r
Y <- rgamma(1000,shape = 1)
(df <- data.frame(Y = Y) %>%
  as_tibble() %>%
  count(Y) %>%
  mutate(p_y = n / sum(n)))
```

```
## # A tibble: 1,000 × 3
##           Y     n   p_y
##       <dbl> <int> <dbl>
##  1 0.000233     1 0.001
##  2 0.000516     1 0.001
##  3 0.000899     1 0.001
##  4 0.00198      1 0.001
##  5 0.00277      1 0.001
##  6 0.00326      1 0.001
##  7 0.00355      1 0.001
##  8 0.00449      1 0.001
##  9 0.00456      1 0.001
## 10 0.00458      1 0.001
## # ℹ 990 more rows
```
…
--

- Sure, but this is because I have drawn a **finite sample**. If I increase `\(n\)`, `\(p(Y=y)\)` will get smaller

```r
Y <- rbeta(n = 100000,2,3)
(df <- data.frame(Y = Y) %>%
  as_tibble() %>%
  count(Y) %>%
  mutate(p_y = n / sum(n)))
```

```
## # A tibble: 99,993 × 3
##          Y     n     p_y
##      <dbl> <int>   <dbl>
##  1 0.00163     1 0.00001
##  2 0.00165     1 0.00001
##  3 0.00171     1 0.00001
##  4 0.00179     1 0.00001
##  5 0.00209     1 0.00001
##  6 0.00209     1 0.00001
##  7 0.00233     1 0.00001
##  8 0.00251     1 0.00001
##  9 0.00272     1 0.00001
## 10 0.00278     1 0.00001
## # ℹ 99,983 more rows
```
…
