Lecture 5
…
df <- read_rds('https://github.com/jbisbee1/PSCI_8356/raw/main/Lectures/Data/sc_debt.Rds')
```

---

# Looking at the data

- Always *always* **always** look at your data!

```r
df
```

```
## # A tibble: 2,546 × 16
##    unitid instnm       stabbr grad_…¹ control region preddeg
##     <int> <chr>        <chr>    <int> <chr>   <chr>  <chr>  
##  1 100654 Alabama A &… AL       33375 Public  South… Bachel…
##  2 100663 University … AL       22500 Public  South… Bachel…
##  3 100690 Amridge Uni… AL       27334 Private South… Associ…
##  4 100706 University … AL       21607 Public  South… Bachel…
##  5 100724 Alabama Sta… AL       32000 Public  South… Bachel…
##  6 100751 The Univers… AL       23250 Public  South… Bachel…
##  7 100760 Central Ala… AL       12500 Public  South… Associ…
##  8 100812 Athens Stat… AL       19500 Public  South… Bachel…
##  9 100830 Auburn Univ… AL       24826 Public  South… Bachel…
## 10 100858 Auburn Univ… AL       21281 Public  South… Bachel…
## # … with 2,536 more rows, 9 more variables: openadmp <int>,
## #   adm_rate <dbl>, ccbasic <int>, sat_avg <int>,
## #   md_earn_wne_p6 <int>, ugds <int>, costt4_a <int>,
## #   selective <dbl>, research_u <dbl>, and abbreviated
## #   variable name ¹​grad_debt_mdn
```
…
- Are public universities "better"?

- Look at two variables:

  - `control`
  
  - `sat_avg`

```r
df %>%
  select(control,sat_avg)
```

```
## # A tibble: 2,546 × 2
##    control sat_avg
##    <chr>     <int>
##  1 Public      939
##  2 Public     1234
##  3 Private      NA
##  4 Public     1319
##  5 Public      946
##  6 Public     1261
##  7 Public       NA
##  8 Public       NA
##  9 Public     1082
## 10 Public     1300
## # … with 2,536 more rows
```
…
