Lecture Wrapup
…
---

# Controlling for a variable

- Start by looking at all three relationships separately

```r
dat %>%
  group_by(educ) %>%
  summarise(income = mean(realinc,na.rm=T))
```

```
## # A tibble: 21 × 2
##    educ                    income
##    <dbl+lbl>                <dbl>
##  1 0 [no formal schooling] 16570.
##  2 1                       21713.
##  3 2                       14994.
##  4 3                       11079.
##  5 4                        9186.
##  6 5                       12194.
##  7 6                       14958.
##  8 7                       13876.
##  9 8                       15699.
## 10 9                       18153.
## # ℹ 11 more rows
```
…
