Lecture 17
…
---

# Controlling for a variable

- Start by looking at all three relationships separately

```r
dat %>%
  group_by(educ) %>%
  summarise(income = mean(realinc,na.rm=T))
```

```
## # A tibble: 21 × 2
##    educ                    income
##    <dbl+lbl>                <dbl>
##  1 0 [no formal schooling] 16684.
##  2 1                       13372.
##  3 2                       14913.
##  4 3                       10643.
##  5 4                        9529.
##  6 5                       12811.
##  7 6                       15210.
##  8 7                       13519.
##  9 8                       15339.
## 10 9                       19075.
## # … with 11 more rows
```
…
